<?xml version="1.0" encoding="utf-8"?>
<!-- Svg Vector Icons : http://www.onlinewebfonts.com/icon -->
<!DOCTYPE svg PUBLIC "-//W3C//DTD SVG 1.1//EN" "http://www.w3.org/Graphics/SVG/1.1/DTD/svg11.dtd">
<svg version="1.1" xmlns="http://www.w3.org/2000/svg" xmlns:xlink="http://www.w3.org/1999/xlink" x="0px" y="0px" viewBox="0 0 1000 1000" enable-background="new 0 0 1000 1000" xml:space="preserve">
<metadata> Svg Vector Icons : http://www.onlinewebfonts.com/icon </metadata>
<g><path d="M192.7,771.2L192.7,771.2C192.7,770.6,192.7,770.9,192.7,771.2z"/><path d="M861.2,603.4c-12.2-32.9-31-55.2-71.1-50.7c-3,0.3-43.2,4.6-49.1,5.8c-8.5,3.1-27.1,6.4-26.8,7.3c-186.5,40.2-368.3,39.3-557.9,0c20.8-58.5,38.8-112.6,59.9-165.4c4-10.1,19.5-19.1,31.3-21.9c28.6-6.8,46.1-13.4,75.3-13.2c2.8,0,1.5-0.1,14.3-0.3c-0.8-1.9-14.5-37.4-14.5-56.4c0-3,0.2-5.9,0.5-8.7c-16.6,2.4-33.3,4.8-49.8,8c-62.8,12.1-111.9,39.5-129.9,107.6c-10.7,40.5-26.8,79.7-41.7,119c-2.9,7.6-12.7,18.9-18,18.2c-43.8-5.6-60.9,21.3-72.6,56c-2.1,8.1-0.9,15.5,0,21.5c16.8,4.5,33.7,8.9,45.5,12.1c-0.8,63.5-1.8,126.6-2.4,189.7c-0.3,34-1.7,68.1,0.7,101.9c1.1,15.6,6.9,40,15.4,46c6.3,8.4,118.9,8.1,139.9,0c9.6-3.7,14.4-53.3,22.4-82.8h412.6c10.1,27.9-9.3,62.3,22.3,82.8c9.4,6.5,130.9,7,136.4-2.4c5.8-3.6,14.1-25.9,14.3-40.3c1.6-80.3,1.1-160.7,0.4-241c-0.1-17.6-4-35.2-6.2-52.6c15.3-4.2,32-8.8,48.7-13.4C862.5,623.6,864.1,613.5,861.2,603.4z M265.3,747.3c-3.3,9-16.6,17.5-27.1,20c-14.4,3.4-30.4,3.9-45.5,3.9c0,0.5,0,0.3,0,0c-22.2-2.3-44.7-3-66.4-7.5c-28.2-5.9-36.1-26.9-27.6-64.7c5.8-25.8,26-26.9,44.1-21c36.3,11.9,71.9,26.5,106.6,42.6C257.6,724.4,267.7,740.9,265.3,747.3z M751.3,762.4c-23.3,5.4-47.5,6.3-67.1,8.6c-22.4-1.8-40.5-1.5-57.8-5.2c-21.5-4.7-28.3-30.1-9.4-39.3c41.2-20,84.6-36,128.4-49.6c17.5-5.4,29.6,9.2,30.2,28.6C776.4,728.2,783.1,755.1,751.3,762.4z"/><path d="M980.4,586.9L840.9,447.2c-3-3-6.5-5.3-10.2-6.9c35.5-44.9,56.7-101.5,56.7-163.2c0-145.4-117.9-263.3-263.3-263.3c-145.4,0-263.2,117.9-263.2,263.3c0,145.4,117.9,263.3,263.2,263.3c61.7,0,118.4-21.2,163.3-56.8c1.6,3.7,3.9,7.2,6.9,10.2l139.5,139.7c12.8,12.9,33.7,12.9,46.5,0C993.2,620.6,993.2,599.8,980.4,586.9z M624.1,474.5c-109,0-197.4-88.4-197.4-197.4c0-109,88.4-197.4,197.4-197.4c109,0,197.4,88.4,197.4,197.4C821.5,386.1,733.1,474.5,624.1,474.5z"/></g>
</svg>